{"aboutme": "I'm a Matrix bot for quickly answering questions in Pine64's chat rooms. You can see my index by entering `!faq index`, and print an element of this index by entering `!faq foo`, where `foo` is the name of the element. I was made by fireTwoOneNine and others, my source code is available at https://github.com/fire219/pine-faq-bot (MIT/X11 license).",
"signal-anon": "Signal is not for anonymity, and better suited to replacing WhatsApp, which is why its use of phone numbers isn't so harmful. For anonymity, messengers like Briar and Jami work better. Matrix, XMPP and others provide pseudonymity.",
"test": "test topic"}
